…
    ## Rows: 52179 Columns: 12
    ## ── Column specification ────────────────────────────────────────────────────────
    ## Delimiter: ","
    ## chr (8): uid, victim_last, victim_first, victim_race, victim_sex, city, stat...
    ## dbl (4): reported_date, victim_age, lat, lon
    ## 
    ## ℹ Use `spec()` to retrieve the full column specification for this data.
    ## ℹ Specify the column types or set `show_col_types = FALSE` to quiet this message.

``` r
homicides_df
```

    ## # A tibble: 52,179 × 12
    ##    uid   repor…¹ victi…² victi…³ victi…⁴ victi…⁵ victi…⁶ city  state   lat   lon
    ##    <chr>   <dbl> <chr>   <chr>   <chr>     <dbl> <chr>   <chr> <chr> <dbl> <dbl>
    ##  1 Alb-…  2.01e7 GARCIA  JUAN    Hispan…      78 Male    Albu… NM     35.1 -107.
    ##  2 Alb-…  2.01e7 MONTOYA CAMERON Hispan…      17 Male    Albu… NM     35.1 -107.
    ##  3 Alb-…  2.01e7 SATTER… VIVIANA White        15 Female  Albu… NM     35.1 -107.
    ##  4 Alb-…  2.01e7 MENDIO… CARLOS  Hispan…      32 Male    Albu… NM     35.1 -107.
    ##  5 Alb-…  2.01e7 MULA    VIVIAN  White        72 Female  Albu… NM     35.1 -107.
    ##  6 Alb-…  2.01e7 BOOK    GERALD… White        91 Female  Albu… NM     35.2 -107.
    ##  7 Alb-…  2.01e7 MALDON… DAVID   Hispan…      52 Male    Albu… NM     35.1 -107.
    ##  8 Alb-…  2.01e7 MALDON… CONNIE  Hispan…      52 Female  Albu… NM     35.1 -107.
    ##  9 Alb-…  2.01e7 MARTIN… GUSTAVO White        56 Male    Albu… NM     35.1 -107.
    ## 10 Alb-…  2.01e7 HERRERA ISRAEL  Hispan…      43 Male    Albu… NM     35.1 -107.
    ## # … with 52,169 more rows, 1 more variable: disposition <chr>, and abbreviated
    ## #   variable names ¹​reported_date, ²​victim_last, ³​victim_first, ⁴​victim_race,
    ## #   ⁵​victim_age, ⁶​victim_sex
…
homicides_df
```

    ## # A tibble: 19,893 × 5
    ##    city_state      homicide_solved victim_age victim_sex victim_race
    ##    <chr>                     <dbl>      <dbl> <chr>      <chr>      
    ##  1 Albuquerque, NM               0         15 Female     White      
    ##  2 Albuquerque, NM               0         72 Female     White      
    ##  3 Albuquerque, NM               0         56 Male       White      
    ##  4 Albuquerque, NM               1         22 Female     White      
    ##  5 Albuquerque, NM               1         25 Male       Black      
    ##  6 Albuquerque, NM               1         20 Male       White      
    ##  7 Albuquerque, NM               0         88 Female     White      
    ##  8 Albuquerque, NM               0         36 Female     White      
    ##  9 Albuquerque, NM               1         24 Male       White      
    ## 10 Albuquerque, NM               1         50 Male       White      
    ## # … with 19,883 more rows
…
knitr::kable(digits = 3)
```

| term             |    OR | lower_CI | upper_CI | p.value |
|:-----------------|------:|---------:|---------:|--------:|
| (Intercept)      | 1.644 |    1.027 |    2.634 |   0.039 |
| victim_age       | 0.989 |    0.980 |    0.999 |   0.027 |
| victim_raceWhite | 2.518 |    1.522 |    4.165 |   0.000 |
| victim_sexMale   | 0.391 |    0.266 |    0.573 |   0.000 |

``` r
baltimore_df
```

    ## # A tibble: 1,371 × 5
    ##    city_state    homicide_solved victim_age victim_sex victim_race
    ##    <chr>                   <dbl>      <dbl> <chr>      <chr>      
    ##  1 Baltimore, MD               0         17 Male       Black      
    ##  2 Baltimore, MD               0         21 Male       Black      
    ##  3 Baltimore, MD               1         61 Male       White      
    ##  4 Baltimore, MD               1         46 Male       Black      
    ##  5 Baltimore, MD               1         21 Male       Black      
    ##  6 Baltimore, MD               1         21 Male       Black      
    ##  7 Baltimore, MD               1         34 Male       Black      
    ##  8 Baltimore, MD               0         26 Male       Black      
    ##  9 Baltimore, MD               1         21 Male       Black      
    ## 10 Baltimore, MD               1         30 Male       Black      
    ## # … with 1,361 more rows
…
models_df
```

    ## # A tibble: 188 × 5
    ##    city_state      term                OR lower_CI upper_CI
    ##    <chr>           <chr>            <dbl>    <dbl>    <dbl>
    ##  1 Albuquerque, NM (Intercept)      1.25     0.226    6.91 
    ##  2 Albuquerque, NM victim_age       0.975    0.948    1.00 
    ##  3 Albuquerque, NM victim_raceWhite 2.56     0.797    8.20 
    ##  4 Albuquerque, NM victim_sexMale   2.09     0.698    6.25 
    ##  5 Atlanta, GA     (Intercept)      2.35     1.21     4.53 
    ##  6 Atlanta, GA     victim_age       0.984    0.971    0.997
    ##  7 Atlanta, GA     victim_raceWhite 0.782    0.355    1.72 
    ##  8 Atlanta, GA     victim_sexMale   1.34     0.802    2.25 
    ##  9 Baltimore, MD   (Intercept)      1.64     1.03     2.63 
    ## 10 Baltimore, MD   victim_age       0.989    0.980    0.999
    ## # … with 178 more rows
…
<img src="p8105_hw6_REN-XIN_files/figure-gfm/unnamed-chunk-5-1.png" width="90%" />

``` r
models_df
```

    ## # A tibble: 188 × 5
    ##    city_state      term                OR lower_CI upper_CI
    ##    <chr>           <chr>            <dbl>    <dbl>    <dbl>
    ##  1 Albuquerque, NM (Intercept)      1.25     0.226    6.91 
    ##  2 Albuquerque, NM victim_age       0.975    0.948    1.00 
    ##  3 Albuquerque, NM victim_raceWhite 2.56     0.797    8.20 
    ##  4 Albuquerque, NM victim_sexMale   2.09     0.698    6.25 
    ##  5 Atlanta, GA     (Intercept)      2.35     1.21     4.53 
    ##  6 Atlanta, GA     victim_age       0.984    0.971    0.997
    ##  7 Atlanta, GA     victim_raceWhite 0.782    0.355    1.72 
    ##  8 Atlanta, GA     victim_sexMale   1.34     0.802    2.25 
    ##  9 Baltimore, MD   (Intercept)      1.64     1.03     2.63 
    ## 10 Baltimore, MD   victim_age       0.989    0.980    0.999
    ## # … with 178 more rows
…
